# Blender v2.70 (sub 0) OBJ File: 'CarBlender.blend'
# www.blender.org
mtllib carblender.mtl
o Mesh1_Model
v 0.612715 -0.075174 1.311181
v 0.486539 -0.075174 1.174642
v 0.486539 -0.000000 1.174642
v 0.612715 -0.000000 1.311181
v -0.267192 -0.075175 2.368826
v -0.424409 -0.075175 2.269593
v -0.550586 -0.075175 2.133055
v -0.637125 -0.075175 1.968511
v -0.678127 -0.075175 1.787173
v -0.670799 -0.075175 1.601400
v -0.615640 -0.075174 1.423861
v -0.516410 -0.075174 1.266640
v -0.379870 -0.075174 1.140469
v -0.215326 -0.075174 1.053928
v -0.033990 -0.075174 1.012927
v 0.151779 -0.075174 1.020251
v 0.329322 -0.075174 1.075409
v 0.699254 -0.075174 1.475724
v 0.740256 -0.075175 1.657062
v 0.732929 -0.075175 1.842835
v 0.677770 -0.075175 2.020375
v 0.578540 -0.075175 2.177588
v 0.442000 -0.075175 2.303766
v 0.277455 -0.075175 2.390307
v 0.096119 -0.075175 2.431308
v -0.089650 -0.075175 2.423985
v -0.267192 -0.000000 2.368826
v -0.424409 -0.000000 2.269593
v -0.089650 -0.000000 2.423985
v 0.096119 -0.000000 2.431308
v 0.277455 -0.000000 2.390307
v 0.442000 -0.000000 2.303766
v 0.578540 -0.000000 2.177588
v 0.677770 -0.000000 2.020375
v 0.732929 -0.000000 1.842835
v 0.740256 -0.000000 1.657062
v 0.699254 -0.000000 1.475724
v 0.558036 -0.000000 1.673775
v 0.527569 -0.000000 1.539036
v 0.463266 -0.000000 1.416767
v 0.369509 -0.000000 1.315313
v 0.329322 -0.000000 1.075409
v 0.252688 -0.000000 1.241575
v 0.151779 -0.000000 1.020251
v 0.120763 -0.000000 1.200589
v -0.017275 -0.000000 1.195146
v -0.033990 -0.000000 1.012927
v -0.152018 -0.000000 1.225610
v -0.215326 -0.000000 1.053928
v -0.274285 -0.000000 1.289914
v -0.375742 -0.000000 1.383674
v -0.379870 -0.000000 1.140469
v -0.449476 -0.000000 1.500494
v -0.490462 -0.000000 1.632419
v -0.516410 -0.000000 1.266640
v -0.495907 -0.000000 1.770460
v -0.550586 -0.000000 2.133055
v -0.615640 -0.000000 1.423861
v -0.637125 -0.000000 1.968511
v -0.670799 -0.000000 1.601400
v -0.678127 -0.000000 1.787173
v -0.465440 -0.000000 1.905199
v -0.401137 -0.000000 2.027469
v -0.307379 -0.000000 2.128923
v -0.190558 -0.000000 2.202660
v -0.058633 -0.000000 2.243646
v 0.079404 -0.000000 2.249089
v 0.214147 -0.000000 2.218625
v 0.336414 -0.000000 2.154321
v 0.437871 -0.000000 2.060561
v 0.511606 -0.000000 1.943742
v 0.552591 -0.000000 1.811816
v 0.558036 -0.027696 1.673775
v 0.552591 -0.027696 1.811816
v 0.527569 -0.027696 1.539036
v 0.463266 -0.027696 1.416767
v 0.369509 -0.027696 1.315313
v 0.252688 -0.027696 1.241575
v 0.120763 -0.027696 1.200589
v -0.017275 -0.027696 1.195146
v -0.152018 -0.027696 1.225610
v -0.274285 -0.027696 1.289914
v -0.375742 -0.027696 1.383674
v -0.449476 -0.027696 1.500494
v -0.490462 -0.027696 1.632419
v -0.495907 -0.027696 1.770460
v -0.465440 -0.027696 1.905199
v -0.401137 -0.027696 2.027469
v -0.307379 -0.027696 2.128923
v -0.190558 -0.027696 2.202660
v -0.058633 -0.027696 2.243646
v 0.079404 -0.027696 2.249089
v 0.214147 -0.027696 2.218625
v 0.336414 -0.027696 2.154321
v 0.437871 -0.027696 2.060561
v 0.511606 -0.027696 1.943742
v -6.479070 0.000000 -1.628161
v -6.248260 0.000000 -1.397358
v -6.479070 -0.000000 1.314320
v -1.718026 0.000000 -1.628161
v -6.479070 0.304564 -1.628161
v -1.718026 0.304564 -1.628161
v -6.479070 0.304564 1.314320
v -1.718026 -0.000000 1.314320
v -1.718026 0.304564 1.314320
v -6.248260 -0.000000 1.083518
v -6.248260 -0.781939 -1.397359
v -6.248260 -0.781940 1.083518
v -3.997905 0.000000 -1.397358
v -3.997905 -0.781939 -1.397359
v -3.997905 -0.000000 0.993889
v -3.997905 -0.000000 1.083518
v -2.628848 0.000000 -0.413159
v -2.283788 0.000000 -0.413159
v -2.283788 0.000000 -0.056755
v -2.628848 0.000000 -0.056755
v -3.997905 -0.781940 1.083518
v -3.997905 -0.781940 0.993889
v -2.628848 -1.133130 -0.413159
v -2.628848 -1.133130 -0.056755
v -2.283788 -1.133130 -0.413159
v -2.283788 -1.133130 -0.056755
v -1.915603 0.304564 -1.430591
v -6.281493 0.304564 -1.430591
v -6.281493 0.304564 1.116751
v -1.915603 0.304564 1.116751
v -1.915603 0.545009 -1.430591
v -1.915603 0.545009 1.116751
v -6.281493 0.545009 -1.430591
v -6.281493 0.545009 1.116751
v -0.298257 -0.000000 0.646705
v -0.455474 -0.000000 0.547475
v -0.581651 -0.000000 0.410935
v -0.668189 -0.000000 0.246390
v -0.709192 -0.000000 0.065054
v -0.701864 0.000000 -0.120714
v -0.646705 0.000000 -0.298257
v -0.547475 0.000000 -0.455474
v -0.410935 0.000000 -0.581651
v -0.246390 0.000000 -0.668189
v -0.065054 0.000000 -0.709192
v 0.120714 0.000000 -0.701864
v 0.298257 0.000000 -0.646705
v 0.455474 0.000000 -0.547475
v 0.581651 0.000000 -0.410935
v 0.668189 0.000000 -0.246390
v 0.709192 0.000000 -0.065054
v 0.701864 -0.000000 0.120714
v 0.646705 -0.000000 0.298257
v 0.547475 -0.000000 0.455474
v 0.410935 -0.000000 0.581651
v 0.246390 -0.000000 0.668189
v 0.065054 -0.000000 0.709192
v -0.120714 -0.000000 0.701864
v -0.298257 0.075174 0.646705
v -0.455474 0.075174 0.547475
v -0.120714 0.075174 0.701864
v 0.065054 0.075174 0.709192
v 0.246390 0.075174 0.668189
v 0.410935 0.075174 0.581651
v 0.547475 0.075174 0.455474
v 0.646705 0.075174 0.298257
v 0.701864 0.075174 0.120714
v 0.709192 0.075174 -0.065054
v 0.668189 0.075174 -0.246390
v 0.581651 0.075174 -0.410935
v 0.455474 0.075174 -0.547475
v 0.298257 0.075174 -0.646705
v 0.120714 0.075174 -0.701864
v -0.065054 0.075174 -0.709192
v -0.246390 0.075174 -0.668189
v -0.410935 0.075174 -0.581651
v -0.547475 0.075174 -0.455474
v -0.646705 0.075174 -0.298257
v -0.701864 0.075174 -0.120714
v -0.709192 0.075174 0.065054
v -0.668189 0.075174 0.246390
v -0.581651 0.075174 0.410935
v -0.526972 0.075174 0.048339
v -0.521527 0.075174 -0.089698
v -0.480541 0.075174 -0.221623
v -0.521527 0.047478 -0.089698
v -0.480541 0.047479 -0.221623
v -0.526972 0.047478 0.048339
v -0.496505 0.075174 0.183082
v -0.496505 0.047478 0.183082
v -0.432202 0.075174 0.305349
v -0.338444 0.075174 0.406807
v -0.221623 0.075174 0.480541
v -0.089698 0.075174 0.521527
v 0.048339 0.075174 0.526972
v 0.183082 0.075174 0.496505
v 0.305349 0.075174 0.432202
v 0.406807 0.075174 0.338444
v 0.480541 0.075174 0.221623
v 0.521527 0.075174 0.089698
v 0.526972 0.075174 -0.048339
v 0.496505 0.075174 -0.183082
v 0.432202 0.075174 -0.305349
v 0.338444 0.075174 -0.406807
v 0.221623 0.075174 -0.480541
v 0.089698 0.075174 -0.521527
v -0.048339 0.075174 -0.526972
v -0.183082 0.075174 -0.496505
v -0.305349 0.075174 -0.432202
v -0.406807 0.075174 -0.338444
v -0.406807 0.047479 -0.338444
v -0.432202 0.047478 0.305349
v -0.338444 0.047478 0.406807
v -0.221623 0.047478 0.480541
v -0.089698 0.047478 0.521527
v 0.048339 0.047478 0.526972
v 0.183082 0.047478 0.496505
v 0.305349 0.047478 0.432202
v 0.406807 0.047478 0.338444
v 0.480541 0.047478 0.221623
v 0.521527 0.047478 0.089698
v 0.526972 0.047478 -0.048339
v 0.496505 0.047479 -0.183082
v 0.432202 0.047479 -0.305349
v 0.338444 0.047479 -0.406807
v 0.221623 0.047479 -0.480541
v 0.089698 0.047479 -0.521527
v -0.048339 0.047479 -0.526972
v -0.183082 0.047479 -0.496505
v -0.305349 0.047479 -0.432202
vt 0.780511 0.501278
vt 0.780511 0.480908
vt 0.788825 0.480908
vt 0.788825 0.501278
vt 0.697367 0.501278
vt 0.697367 0.521648
vt 0.689052 0.521648
vt 0.689052 0.501278
vt 0.747253 0.480908
vt 0.747253 0.501278
vt 0.738939 0.501278
vt 0.738939 0.480908
vt 0.730624 0.501278
vt 0.730624 0.480908
vt 0.763882 0.480908
vt 0.763882 0.501278
vt 0.755568 0.501278
vt 0.755568 0.480908
vt 0.294339 0.666170
vt 0.294339 0.686540
vt 0.286025 0.686540
vt 0.286025 0.666170
vt 0.689052 0.480908
vt 0.697367 0.480908
vt 0.788825 0.521647
vt 0.797140 0.501278
vt 0.797140 0.521647
vt 0.797140 0.480908
vt 0.317130 0.666170
vt 0.317130 0.645800
vt 0.325444 0.645800
vt 0.325444 0.666170
vt 0.308815 0.666170
vt 0.308815 0.645800
vt 0.780511 0.521647
vt 0.529580 0.671099
vt 0.607674 0.660915
vt 0.549442 0.676372
vt 0.622214 0.646512
vt 0.567363 0.656494
vt 0.552084 0.656494
vt 0.511773 0.660914
vt 0.537326 0.652577
vt 0.524094 0.645008
vt 0.497233 0.646511
vt 0.513290 0.634306
vt 0.486952 0.628870
vt 0.505650 0.621198
vt 0.501696 0.606577
vt 0.481631 0.609194
vt 0.501696 0.591441
vt 0.481631 0.588824
vt 0.505651 0.576821
vt 0.513291 0.563713
vt 0.486953 0.569148
vt 0.524094 0.553010
vt 0.537327 0.545442
vt 0.497234 0.551508
vt 0.552085 0.541525
vt 0.589868 0.526920
vt 0.511774 0.537104
vt 0.570006 0.521648
vt 0.529581 0.526920
vt 0.549444 0.521648
vt 0.294339 0.645800
vt 0.286025 0.645800
vt 0.302654 0.666170
vt 0.302654 0.686540
vt 0.611224 0.757851
vt 0.611224 0.778220
vt 0.602909 0.778220
vt 0.602909 0.757851
vt 0.302654 0.768019
vt 0.302654 0.788389
vt 0.294339 0.788389
vt 0.294339 0.768019
vt 0.607675 0.537105
vt 0.567364 0.541525
vt 0.582123 0.545443
vt 0.622215 0.551509
vt 0.595354 0.553011
vt 0.606159 0.563714
vt 0.632496 0.569150
vt 0.613798 0.576822
vt 0.637818 0.588825
vt 0.617752 0.591442
vt 0.617753 0.606578
vt 0.637818 0.609195
vt 0.613798 0.621198
vt 0.632495 0.628871
vt 0.606158 0.634306
vt 0.595354 0.645009
vt 0.582122 0.652577
vt 0.282579 0.536784
vt 0.282579 0.521648
vt 0.285642 0.521648
vt 0.285642 0.536784
vt 0.602034 0.808492
vt 0.602034 0.793356
vt 0.605097 0.793356
vt 0.605097 0.808492
vt 0.282579 0.567057
vt 0.282579 0.551921
vt 0.285642 0.551921
vt 0.285642 0.567057
vt 0.608161 0.808492
vt 0.608161 0.793356
vt 0.611224 0.793356
vt 0.611224 0.808492
vt 0.282579 0.612465
vt 0.282579 0.597329
vt 0.285642 0.597329
vt 0.285642 0.612465
vt 0.608161 0.778220
vt 0.305717 0.706344
vt 0.305717 0.721480
vt 0.302654 0.721480
vt 0.302654 0.706344
vt 0.808517 0.496044
vt 0.808517 0.480908
vt 0.811580 0.480908
vt 0.811580 0.496044
vt 0.285642 0.642738
vt 0.285642 0.657874
vt 0.282579 0.657874
vt 0.282579 0.642738
vt 0.285642 0.627601
vt 0.282579 0.627601
vt 0.814644 0.480908
vt 0.814644 0.496044
vt 0.285642 0.673010
vt 0.285642 0.688146
vt 0.282579 0.688146
vt 0.282579 0.673010
vt 0.285642 0.582193
vt 0.282579 0.582193
vt 0.815519 0.501278
vt 0.815519 0.516413
vt 0.812456 0.516413
vt 0.812456 0.501278
vt 0.803266 0.516413
vt 0.803266 0.501278
vt 0.806329 0.501278
vt 0.806329 0.516413
vt 0.305717 0.782024
vt 0.305717 0.797160
vt 0.302654 0.797160
vt 0.302654 0.782024
vt 0.297403 0.788389
vt 0.297403 0.803525
vt 0.294339 0.803525
vt 0.305717 0.676072
vt 0.305717 0.691208
vt 0.302654 0.691208
vt 0.302654 0.676072
vt 0.809392 0.516413
vt 0.809392 0.501278
vt 0.302654 0.660936
vt 0.305717 0.660936
vt 0.286025 0.788389
vt 0.286025 0.768019
vt 0.302654 0.645800
vt 0.805454 0.480908
vt 0.805454 0.501278
vt 0.602909 0.696741
vt 0.602909 0.676372
vt 0.611224 0.676372
vt 0.611224 0.696741
vt 0.302654 0.727280
vt 0.302654 0.747649
vt 0.294339 0.747649
vt 0.294339 0.727280
vt 0.611224 0.717111
vt 0.611224 0.737481
vt 0.602909 0.737481
vt 0.602909 0.717111
vt 0.713996 0.501278
vt 0.713996 0.480908
vt 0.722310 0.480908
vt 0.722310 0.501278
vt 0.705681 0.501278
vt 0.705681 0.521648
vt 0.589867 0.671100
vt 0.570005 0.676372
vt 0.466028 0.551508
vt 0.476308 0.569148
vt 0.476310 0.628870
vt 0.466028 0.646511
vt 0.451489 0.660914
vt 0.433681 0.671099
vt 0.413820 0.676372
vt 0.393257 0.676372
vt 0.373395 0.671100
vt 0.355588 0.660915
vt 0.341048 0.646512
vt 0.330766 0.628871
vt 0.325444 0.609195
vt 0.325444 0.588826
vt 0.330765 0.569150
vt 0.341046 0.551509
vt 0.355586 0.537105
vt 0.373394 0.526920
vt 0.393255 0.521648
vt 0.413818 0.521648
vt 0.433680 0.526920
vt 0.451487 0.537104
vt 0.003955 0.873141
vt 0.000000 0.858521
vt 0.000000 0.843385
vt 0.003954 0.828764
vt 0.011593 0.815656
vt 0.022397 0.804953
vt 0.035629 0.797385
vt 0.050387 0.793467
vt 0.065667 0.793467
vt 0.080425 0.797384
vt 0.093657 0.804952
vt 0.104462 0.815655
vt 0.112101 0.828762
vt 0.116056 0.843383
vt 0.116056 0.858518
vt 0.112102 0.873139
vt 0.104463 0.886247
vt 0.093659 0.896950
vt 0.080427 0.904518
vt 0.065669 0.908436
vt 0.050390 0.908436
vt 0.035631 0.904519
vt 0.022399 0.896951
vt 0.011595 0.886249
vt 0.650888 0.000000
vt 0.625361 0.025289
vt 0.325444 0.000000
vt 0.650888 0.521648
vt 0.932629 0.521648
vt 0.932629 0.000000
vt 0.966314 0.000000
vt 0.966314 0.521648
vt 0.282579 0.844043
vt 0.248894 0.844043
vt 0.248894 0.521648
vt 1.000000 0.000000
vt 1.000000 0.521648
vt 0.966315 0.521648
vt 0.350971 0.025289
vt 0.325444 0.521648
vt 0.794004 0.793467
vt 0.794004 0.521648
vt 0.880488 0.521648
vt 0.880488 0.793467
vt 0.481631 0.676372
vt 0.481631 0.922934
vt 0.395147 0.922934
vt 0.395147 0.676372
vt 0.625361 0.271851
vt 0.360884 0.271851
vt 0.350971 0.271851
vt 0.516507 0.421853
vt 0.516507 0.459660
vt 0.477088 0.459660
vt 0.477088 0.421853
vt 0.308663 0.922934
vt 0.308663 0.676372
vt 0.568115 0.938371
vt 0.568115 0.948191
vt 0.481631 0.948191
vt 0.481631 0.938371
vt 0.568115 0.676372
vt 0.286025 0.521648
vt 0.210729 0.793467
vt 0.248894 0.793467
vt 0.248894 0.917619
vt 0.210729 0.917619
vt 0.116056 0.793467
vt 0.155475 0.793467
vt 0.155475 0.917619
vt 0.116056 0.917619
vt 0.193639 0.917619
vt 0.193639 0.793467
vt 0.650888 0.482598
vt 0.689052 0.482598
vt 0.568115 0.998767
vt 0.601800 0.676372
vt 0.601800 0.998767
vt 0.000000 0.521648
vt 0.021852 0.500000
vt 0.021852 0.021648
vt 0.000000 0.000000
vt 0.303593 0.021648
vt 0.303593 0.500000
vt 0.611224 0.955473
vt 0.637818 0.676372
vt 0.637818 0.955473
vt 0.966315 1.000000
vt 0.992908 0.521648
vt 0.992908 1.000000
vt 0.932629 0.478352
vt 0.932629 0.757454
vt 0.906035 0.757454
vt 0.906035 0.478352
vt 0.959223 0.521648
vt 0.959223 1.000000
vt 0.932629 1.000000
vt 0.650888 0.478352
vt 0.000000 0.793467
vt 0.000000 0.531468
vt 0.755568 0.521648
vt 0.747253 0.521648
vt 0.705681 0.480908
vt 0.772196 0.521648
vt 0.772196 0.501278
vt 0.780511 0.521648
vt 0.763882 0.521648
vt 0.722310 0.521648
vt 0.730624 0.521648
vt 0.772196 0.480908
vt 0.286025 0.706910
vt 0.294339 0.706910
vt 0.738939 0.521648
vt 0.294339 0.747650
vt 0.286025 0.747650
vt 0.286025 0.727280
vt 0.713996 0.521648
vt 0.302654 0.706910
vt 0.611224 0.696742
vt 0.602909 0.696742
vt 0.723551 0.656494
vt 0.685768 0.671099
vt 0.667961 0.660915
vt 0.778401 0.646511
vt 0.763862 0.660914
vt 0.705630 0.676371
vt 0.746054 0.671099
vt 0.726192 0.676371
vt 0.738309 0.652577
vt 0.788683 0.628870
vt 0.751541 0.645009
vt 0.289088 0.788389
vt 0.289088 0.803525
vt 0.286025 0.803525
vt 0.285642 0.718418
vt 0.285642 0.733554
vt 0.282579 0.733554
vt 0.282579 0.718418
vt 0.285642 0.748689
vt 0.282579 0.748689
vt 0.708272 0.656494
vt 0.693513 0.652577
vt 0.653421 0.646511
vt 0.680281 0.645009
vt 0.669477 0.634306
vt 0.643139 0.628870
vt 0.661837 0.621198
vt 0.657883 0.606578
vt 0.657883 0.591442
vt 0.661837 0.576822
vt 0.643139 0.569149
vt 0.669477 0.563713
vt 0.680281 0.553011
vt 0.653421 0.551508
vt 0.693513 0.545443
vt 0.708271 0.541525
vt 0.746054 0.526920
vt 0.723550 0.541525
vt 0.763861 0.537105
vt 0.738309 0.545442
vt 0.751541 0.553010
vt 0.778401 0.551508
vt 0.762345 0.563713
vt 0.788682 0.569149
vt 0.769984 0.576821
vt 0.773939 0.591441
vt 0.794004 0.588825
vt 0.773939 0.606577
vt 0.794004 0.609194
vt 0.769985 0.621198
vt 0.762345 0.634306
vt 0.285642 0.763825
vt 0.285642 0.778961
vt 0.282579 0.778961
vt 0.282579 0.763825
vt 0.291276 0.803525
vt 0.291276 0.788389
vt 0.308780 0.660936
vt 0.308780 0.676072
vt 0.305717 0.751752
vt 0.305717 0.766888
vt 0.302654 0.766888
vt 0.302654 0.751752
vt 0.302654 0.803525
vt 0.299591 0.803525
vt 0.299591 0.788389
vt 0.285642 0.748690
vt 0.282579 0.794097
vt 0.285642 0.794097
vt 0.305717 0.645800
vt 0.302654 0.736616
vt 0.305717 0.736616
vt 0.805454 0.496044
vt 0.282579 0.703282
vt 0.285642 0.703282
vt 0.602909 0.793356
vt 0.605973 0.778220
vt 0.605973 0.793356
vt 0.305752 0.660936
vt 0.305752 0.645800
vt 0.308815 0.660936
vt 0.797140 0.516414
vt 0.800203 0.501278
vt 0.800203 0.516414
vt 0.800203 0.516413
vt 0.667960 0.537105
vt 0.726192 0.521648
vt 0.685768 0.526920
vt 0.705630 0.521648
vt 0.906106 0.828763
vt 0.910060 0.843383
vt 0.910060 0.858519
vt 0.906106 0.873140
vt 0.898466 0.886248
vt 0.887663 0.896950
vt 0.874430 0.904518
vt 0.859672 0.908436
vt 0.844393 0.908436
vt 0.829634 0.904519
vt 0.816402 0.896951
vt 0.805598 0.886248
vt 0.797959 0.873140
vt 0.794004 0.858520
vt 0.794004 0.843384
vt 0.797959 0.828763
vt 0.805598 0.815655
vt 0.816402 0.804953
vt 0.829634 0.797385
vt 0.844393 0.793467
vt 0.859672 0.793467
vt 0.874430 0.797384
vt 0.887662 0.804952
vt 0.898466 0.815655
vt 0.685768 0.681643
vt 0.746054 0.681643
vt 0.763861 0.691828
vt 0.778401 0.706232
vt 0.788682 0.723873
vt 0.794004 0.743548
vt 0.794004 0.763918
vt 0.788682 0.783594
vt 0.778401 0.801235
vt 0.763861 0.815638
vt 0.746054 0.825823
vt 0.726192 0.831095
vt 0.705630 0.831095
vt 0.685768 0.825823
vt 0.667960 0.815638
vt 0.653421 0.801235
vt 0.643139 0.783594
vt 0.637818 0.763918
vt 0.637818 0.743548
vt 0.643139 0.723873
vt 0.653421 0.706232
vt 0.667960 0.691828
usemtl FrontColor
s off
f 1/1 2/2 3/3 4/4
f 6/5 5/6 27/7 28/8
f 5/9 26/10 29/11 27/12
f 26/12 25/11 30/13 29/14
f 25/15 24/16 31/17 30/18
f 24/19 23/20 32/21 31/22
f 23/8 22/23 33/24 32/5
f 22/25 21/4 34/26 33/27
f 21/4 20/3 35/28 34/26
f 20/29 19/30 36/31 35/32
f 19/33 18/34 37/30 36/29
f 18/35 1/1 4/4 37/25
f 4/36 34/37 37/38
f 4/36 33/39 34/37
f 4/36 38/40 33/39
f 4/36 39/41 38/40
f 3/42 39/41 4/36
f 3/42 40/43 39/41
f 3/42 41/44 40/43
f 42/45 41/44 3/42
f 42/45 43/46 41/44
f 44/47 43/46 42/45
f 44/47 45/48 43/46
f 44/47 46/49 45/48
f 47/50 46/49 44/47
f 47/50 48/51 46/49
f 49/52 48/51 47/50
f 49/52 50/53 48/51
f 49/52 51/54 50/53
f 52/55 51/54 49/52
f 52/55 53/56 51/54
f 52/55 54/57 53/56
f 55/58 54/57 52/55
f 54/57 55/58 56/59
f 55/58 57/60 56/59
f 58/61 57/60 55/58
f 58/61 59/62 57/60
f 60/63 59/62 58/61
f 59/62 60/63 61/64
f 10/65 9/19 61/22 60/66
f 9/67 8/68 59/20 61/19
f 8/69 7/70 57/71 59/72
f 7/73 6/74 28/75 57/76
f 56/59 57/60 28/77
f 56/59 28/77 62/78
f 62/78 28/77 63/79
f 63/79 28/77 27/80
f 63/79 27/80 64/81
f 64/81 27/80 65/82
f 65/82 27/80 29/83
f 65/82 29/83 66/84
f 66/84 29/83 30/85
f 66/84 30/85 67/86
f 67/86 30/85 68/87
f 68/87 30/85 31/88
f 68/87 31/88 69/89
f 69/89 31/88 32/90
f 69/89 32/90 70/91
f 70/91 32/90 71/92
f 71/92 32/90 33/39
f 71/92 33/39 72/93
f 72/93 33/39 38/40
f 72/94 38/95 73/96 74/97
f 38/98 39/99 75/100 73/101
f 39/102 40/103 76/104 75/105
f 40/106 41/107 77/108 76/109
f 41/110 43/111 78/112 77/113
f 43/70 45/108 79/107 78/114
f 45/115 46/116 80/117 79/118
f 46/119 48/120 81/121 80/122
f 48/123 50/124 82/125 81/126
f 50/127 51/123 83/126 82/128
f 51/129 53/130 84/122 83/121
f 53/131 54/132 85/133 84/134
f 54/97 56/104 86/103 85/94
f 56/107 62/106 87/101 86/100
f 62/105 63/135 88/136 87/102
f 63/137 64/138 89/139 88/140
f 64/113 65/127 90/128 89/110
f 65/141 66/142 91/143 90/144
f 66/145 67/146 92/147 91/148
f 67/149 68/150 93/151 92/75
f 68/152 69/153 94/154 93/155
f 69/111 70/136 95/135 94/112
f 70/156 71/157 96/140 95/139
f 71/155 72/158 74/159 96/152
f 11/76 10/75 60/160 58/161
f 12/162 11/67 58/19 55/65
f 13/163 12/164 55/26 52/28
f 14/165 13/166 52/167 49/168
f 15/169 14/170 49/171 47/172
f 16/173 15/174 47/175 44/176
f 17/177 16/178 44/179 42/180
f 2/6 17/5 42/181 3/182
f 37/38 34/37 35/183
f 37/38 35/183 36/184
f 12/185 13/186 14/52 15/50 16/187 17/188 2/189 1/190 18/191 19/192 20/193 21/194 22/195 23/196 24/197 25/198 26/199 5/200 6/201 7/202 8/203 9/204 10/205 11/206
f 75/207 76/208 77/209 78/210 79/211 80/212 81/213 82/214 83/215 84/216 85/217 86/218 87/219 88/220 89/221 90/222 91/223 92/224 93/225 94/226 95/227 96/228 74/229 73/230
f 97/231 98/232 99/233
f 98/232 97/231 100/234
f 100/235 97/236 101/237 102/238
f 97/95 99/239 103/240 101/241
f 99/242 104/243 105/244 103/237
f 99/233 106/245 104/246
f 106/245 99/233 98/232
f 106/247 98/248 107/249 108/250
f 98/251 109/252 110/253 107/254
f 98/232 100/234 109/255
f 109/255 100/234 111/256
f 111/256 100/234 112/257
f 112/257 100/234 113/258
f 113/258 100/234 114/259
f 114/259 100/234 115/260
f 104/246 115/260 100/234
f 104/246 116/261 115/260
f 104/246 112/257 116/261
f 104/246 106/245 112/257
f 112/262 106/263 108/254 117/253
f 111/264 112/265 117/266 118/267
f 109/268 111/264 118/267 110/251
f 116/261 112/257 113/258
f 116/31 113/66 119/269 120/246
f 113/270 114/271 121/272 119/273
f 114/274 115/275 122/276 121/277
f 115/278 116/276 120/275 122/279
f 119/7 121/234 122/280 120/281
f 104/282 100/268 102/283 105/284
f 102/285 123/286 105/246
f 102/285 124/287 123/286
f 101/288 124/287 102/285
f 124/287 101/288 125/289
f 103/233 125/289 101/288
f 125/289 103/233 105/246
f 125/289 105/246 126/290
f 126/290 105/246 123/286
f 126/291 123/167 127/292 128/293
f 123/294 124/238 129/295 127/296
f 124/297 125/298 130/299 129/300
f 125/301 126/302 128/303 130/235
f 128/297 127/304 129/231 130/236
f 110/305 118/306 117/285 108/241 107/271
f 132/17 131/307 155/308 156/10
f 131/178 154/177 157/181 155/309
f 154/18 153/17 158/10 157/9
f 153/309 152/181 159/5 158/24
f 152/310 151/311 160/1 159/312
f 151/180 150/179 161/14 160/13
f 150/313 149/16 162/311 161/310
f 149/314 148/180 163/13 162/315
f 148/16 147/15 164/316 163/311
f 147/317 146/21 165/20 164/318
f 146/311 145/316 166/2 165/1
f 145/315 144/13 167/11 166/319
f 144/172 143/320 168/321 167/322
f 143/180 142/314 169/323 168/177
f 142/307 141/17 170/16 169/313
f 141/318 140/20 171/68 170/324
f 140/320 139/76 172/161 171/321
f 139/324 138/169 173/172 172/318
f 138/10 137/308 174/319 173/11
f 137/325 136/173 175/176 174/326
f 136/174 135/69 176/72 175/175
f 135/177 134/323 177/182 176/181
f 134/170 133/73 178/76 177/171
f 133/318 132/172 156/322 178/317
f 179/327 178/328 156/329
f 173/330 178/328 179/327
f 174/331 178/328 173/330
f 174/331 177/332 178/328
f 175/333 177/332 174/331
f 177/332 175/333 176/334
f 180/335 173/330 179/327
f 173/330 180/335 172/336
f 172/336 180/335 181/337
f 181/338 180/339 182/340 183/160
f 180/341 179/342 184/343 182/344
f 179/342 185/345 186/346 184/343
f 179/327 156/329 185/347
f 185/347 156/329 187/348
f 187/348 156/329 155/349
f 187/348 155/349 188/350
f 188/350 155/349 189/351
f 189/351 155/349 157/352
f 189/351 157/352 190/353
f 190/353 157/352 158/88
f 190/353 158/88 191/354
f 191/354 158/88 192/355
f 192/355 158/88 159/85
f 192/355 159/85 193/356
f 193/356 159/85 160/357
f 193/356 160/357 194/358
f 194/358 160/357 195/359
f 195/359 160/357 161/360
f 195/359 161/360 196/361
f 196/361 161/360 197/362
f 166/363 197/362 161/360
f 166/363 198/364 197/362
f 167/365 198/364 166/363
f 167/365 199/366 198/364
f 167/365 200/367 199/366
f 168/368 200/367 167/365
f 168/368 201/369 200/367
f 169/370 201/369 168/368
f 169/370 202/371 201/369
f 169/370 203/372 202/371
f 170/373 203/372 169/370
f 170/373 204/374 203/372
f 171/375 204/374 170/373
f 171/375 205/376 204/374
f 171/375 206/377 205/376
f 172/336 206/377 171/375
f 172/336 181/337 206/377
f 206/378 181/379 183/380 207/381
f 185/75 187/151 208/382 186/383
f 187/152 188/159 209/384 208/385
f 188/386 189/387 210/388 209/389
f 189/74 190/390 211/391 210/392
f 190/118 191/154 212/153 211/115
f 191/381 192/346 213/393 212/378
f 192/394 193/380 214/379 213/395
f 193/158 194/162 215/396 214/159
f 194/397 195/117 216/116 215/398
f 195/399 196/163 217/120 216/119
f 196/344 197/400 218/401 217/341
f 197/148 198/388 219/387 218/145
f 198/402 199/71 220/403 219/404
f 199/405 200/406 221/34 220/407
f 200/408 201/26 222/409 221/410
f 201/144 202/143 223/157 222/156
f 202/132 203/401 224/400 223/133
f 203/398 204/386 225/389 224/397
f 204/142 205/141 226/411 225/409
f 205/124 206/131 207/134 226/125
f 166/363 161/360 162/412
f 166/363 162/412 165/413
f 165/413 162/412 163/414
f 165/413 163/414 164/415
f 207/416 183/417 182/418 184/419 186/420 208/421 209/422 210/423 211/424 212/425 213/426 214/427 215/428 216/429 217/430 218/431 219/432 220/433 221/434 222/435 223/436 224/437 225/438 226/439
f 135/440 136/332 137/334 138/441 139/442 140/443 141/444 142/445 143/446 144/447 145/448 146/449 147/450 148/451 149/452 150/453 151/454 152/455 153/456 154/457 131/458 132/459 133/460 134/461
